player	C	1B	2B	3B	SS	LF	CF	RF	R
Bethany Young	7	6	7	5	4	4	4	4	4
Grace Kumagi	7	6	7	5	6	5	5	5	5
Xin Wei	6	4	3	0	0	3	3	3	3
Patricia Rakopoulos	7	5	5	4	3	6	6	6	7
Tammy Cheung	7	6	4	4	4	7	7	7	7
Fei Luo	7	6	4	2	3	4	4	4	6
David Shih	6	6	5	5	5	8	8	8	7
Jonathon Torchia	6	5	4	4	4	8	8	8	6
Kentaro Oka	6	6	7	8	8	7	7	7	8
Ahmed Husnain	6	7	4	7	4	3	3	3	4
Sean Smith	6	7	5	6	5	3	3	3	3
Gregory Huang	6	5	6	5	5	4	4	4	5
Benjamin Corcoran	6	6	6	6	4	5	5	5	6
Daniel Ji	6	7	6	7	5	4	4	4	4
Najib Tasleem	6	6	6	6	6	8	8	8	6
Farhad Jamal	6	6	6	6	5	5	5	5	6
